EESchema Schematic File Version 2
LIBS:power
LIBS:device
LIBS:transistors
LIBS:conn
LIBS:linear
LIBS:regul
LIBS:74xx
LIBS:cmos4000
LIBS:adc-dac
LIBS:memory
LIBS:xilinx
LIBS:microcontrollers
LIBS:dsp
LIBS:microchip
LIBS:analog_switches
LIBS:motorola
LIBS:texas
LIBS:intel
LIBS:audio
LIBS:interface
LIBS:digital-audio
LIBS:philips
LIBS:display
LIBS:cypress
LIBS:siliconi
LIBS:opto
LIBS:atmel
LIBS:contrib
LIBS:valves
LIBS:add
LIBS:main-cache
EELAYER 25 0
EELAYER END
$Descr A3 16535 11693
encoding utf-8
Sheet 1 1
Title "Метеостанция"
Date "2017-07-27"
Rev ""
Comp ""
Comment1 ""
Comment2 "RabidRabbit"
Comment3 ""
Comment4 ""
$EndDescr
$Comp
L ATMEGA8-AI IC?
U 1 1 5979929F
P 7900 4400
F 0 "IC?" H 7150 5600 50  0000 L BNN
F 1 "ATMEGA8-AI" H 8400 2850 50  0000 L BNN
F 2 "TQFP32" H 7900 4400 50  0000 C CIN
F 3 "" H 7900 4400 50  0000 C CNN
	1    7900 4400
	1    0    0    -1  
$EndComp
Text Label 9500 3700 2    60   ~ 0
MOSI
Text Label 9500 3800 2    60   ~ 0
MISO
Text Label 9500 3900 2    60   ~ 0
SCK
Text Label 6500 3400 0    60   ~ 0
RESET
$Comp
L AVR-ISP-10 CON?
U 1 1 59799441
P 15400 1000
F 0 "CON?" H 15230 1330 50  0000 C CNN
F 1 "ISP" H 15060 670 50  0000 L BNN
F 2 "AVR-ISP-10" V 14650 1050 50  0001 C CNN
F 3 "" H 15400 1000 50  0000 C CNN
	1    15400 1000
	1    0    0    -1  
$EndComp
NoConn ~ 15200 900 
$Comp
L +3.3V #PWR?
U 1 1 59799619
P 15800 650
F 0 "#PWR?" H 15800 500 50  0001 C CNN
F 1 "+3.3V" H 15800 790 50  0000 C CNN
F 2 "" H 15800 650 50  0000 C CNN
F 3 "" H 15800 650 50  0000 C CNN
	1    15800 650 
	1    0    0    -1  
$EndComp
$Comp
L C_Small C?
U 1 1 5979963F
P 15900 1000
F 0 "C?" H 15910 1070 50  0000 L CNN
F 1 "0.1" H 15910 920 50  0000 L CNN
F 2 "" H 15900 1000 50  0000 C CNN
F 3 "" H 15900 1000 50  0000 C CNN
	1    15900 1000
	1    0    0    -1  
$EndComp
$Comp
L GND #PWR?
U 1 1 597996BF
P 15800 1300
F 0 "#PWR?" H 15800 1050 50  0001 C CNN
F 1 "GND" H 15800 1150 50  0000 C CNN
F 2 "" H 15800 1300 50  0000 C CNN
F 3 "" H 15800 1300 50  0000 C CNN
	1    15800 1300
	1    0    0    -1  
$EndComp
Text Label 14100 800  0    60   ~ 0
ISP_MOSI
Text Label 14100 1000 0    60   ~ 0
ISP_RESET
Text Label 14100 1100 0    60   ~ 0
ISP_SCK
Text Label 14100 1200 0    60   ~ 0
ISP_MISO
$Comp
L Jumper_NC_Dual JP?
U 1 1 597998FE
P 14550 1800
F 0 "JP?" H 14600 1700 50  0000 L CNN
F 1 "Jumper_NC_Dual" H 14550 1900 50  0000 C BNN
F 2 "" H 14550 1800 50  0000 C CNN
F 3 "" H 14550 1800 50  0000 C CNN
	1    14550 1800
	1    0    0    -1  
$EndComp
$Comp
L Jumper_NC_Dual JP?
U 1 1 59799A85
P 14550 2200
F 0 "JP?" H 14600 2100 50  0000 L CNN
F 1 "Jumper_NC_Dual" H 14550 2300 50  0000 C BNN
F 2 "" H 14550 2200 50  0000 C CNN
F 3 "" H 14550 2200 50  0000 C CNN
	1    14550 2200
	1    0    0    -1  
$EndComp
$Comp
L Jumper_NC_Dual JP?
U 1 1 59799B10
P 14550 2600
F 0 "JP?" H 14600 2500 50  0000 L CNN
F 1 "Jumper_NC_Dual" H 14550 2700 50  0000 C BNN
F 2 "" H 14550 2600 50  0000 C CNN
F 3 "" H 14550 2600 50  0000 C CNN
	1    14550 2600
	1    0    0    -1  
$EndComp
Text Label 13700 1800 0    60   ~ 0
DEV_MOSI
Text Label 13700 2200 0    60   ~ 0
DEV_MISO
Text Label 13700 2600 0    60   ~ 0
DEV_SCK
Text Label 13700 2000 0    60   ~ 0
MOSI
Text Label 13700 2400 0    60   ~ 0
MISO
Text Label 13700 2800 0    60   ~ 0
SCK
Text Label 15400 1800 2    60   ~ 0
ISP_MOSI
Text Label 15400 2200 2    60   ~ 0
ISP_MISO
Text Label 15400 2600 2    60   ~ 0
ISP_SCK
$Comp
L R_Small R?
U 1 1 597EBF3E
P 14550 3000
F 0 "R?" H 14580 3020 50  0000 L CNN
F 1 "15K" H 14580 2960 50  0000 L CNN
F 2 "" H 14550 3000 50  0001 C CNN
F 3 "" H 14550 3000 50  0001 C CNN
	1    14550 3000
	1    0    0    -1  
$EndComp
$Comp
L +3.3V #PWR?
U 1 1 597EBFE4
P 14950 2900
F 0 "#PWR?" H 14950 2750 50  0001 C CNN
F 1 "+3.3V" H 14950 3040 50  0000 C CNN
F 2 "" H 14950 2900 50  0000 C CNN
F 3 "" H 14950 2900 50  0000 C CNN
	1    14950 2900
	1    0    0    -1  
$EndComp
$Comp
L SI4432 M?
U 1 1 597EC17E
P 2850 1850
F 0 "M?" H 3000 1200 60  0000 C CNN
F 1 "SI4432" H 3000 2500 60  0000 C CNN
F 2 "" H 2850 1850 60  0000 C CNN
F 3 "" H 2850 1850 60  0000 C CNN
	1    2850 1850
	1    0    0    -1  
$EndComp
$Comp
L GND #PWR?
U 1 1 597EC2D1
P 3500 2900
F 0 "#PWR?" H 3500 2650 50  0001 C CNN
F 1 "GND" H 3500 2750 50  0000 C CNN
F 2 "" H 3500 2900 50  0000 C CNN
F 3 "" H 3500 2900 50  0000 C CNN
	1    3500 2900
	1    0    0    -1  
$EndComp
$Comp
L C_Small C?
U 1 1 597EC57D
P 3650 2600
F 0 "C?" H 3660 2670 50  0000 L CNN
F 1 "0.1" H 3660 2520 50  0000 L CNN
F 2 "" H 3650 2600 50  0000 C CNN
F 3 "" H 3650 2600 50  0000 C CNN
	1    3650 2600
	1    0    0    -1  
$EndComp
$Comp
L CP_Small C?
U 1 1 597EC8F8
P 3850 2600
F 0 "C?" H 3860 2670 50  0000 L CNN
F 1 "22.0" H 3860 2520 50  0000 L CNN
F 2 "" H 3850 2600 50  0001 C CNN
F 3 "" H 3850 2600 50  0001 C CNN
	1    3850 2600
	1    0    0    -1  
$EndComp
$Comp
L +3.3V #PWR?
U 1 1 597ECCCF
P 3600 1200
F 0 "#PWR?" H 3600 1050 50  0001 C CNN
F 1 "+3.3V" H 3600 1340 50  0000 C CNN
F 2 "" H 3600 1200 50  0000 C CNN
F 3 "" H 3600 1200 50  0000 C CNN
	1    3600 1200
	1    0    0    -1  
$EndComp
NoConn ~ 3400 2100
NoConn ~ 3400 2200
NoConn ~ 3400 2300
Text Label 4100 1900 2    60   ~ 0
DEV_MISO
Text Label 4100 1800 2    60   ~ 0
DEV_MOSI
Text Label 4100 1700 2    60   ~ 0
DEV_SCK
Text Label 4100 1600 2    60   ~ 0
SEL_SI4432
Text Label 4100 1500 2    60   ~ 0
SI4432_INT
Text Label 4100 1400 2    60   ~ 0
SI4432_SDN
Text Label 9500 5200 2    60   ~ 0
SI4432_INT
$Comp
L +5V #PWR?
U 1 1 597EDA72
P 2600 4100
F 0 "#PWR?" H 2600 3950 50  0001 C CNN
F 1 "+5V" H 2600 4240 50  0000 C CNN
F 2 "" H 2600 4100 50  0001 C CNN
F 3 "" H 2600 4100 50  0001 C CNN
	1    2600 4100
	1    0    0    -1  
$EndComp
$Comp
L Q_NPN_BCE Q?
U 1 1 598377AF
P 2500 4800
F 0 "Q?" H 2700 4850 50  0000 L CNN
F 1 "KT315" H 2700 4750 50  0000 L CNN
F 2 "" H 2700 4900 50  0001 C CNN
F 3 "" H 2500 4800 50  0001 C CNN
	1    2500 4800
	1    0    0    -1  
$EndComp
$Comp
L R_Small R?
U 1 1 598378C5
P 2600 4300
F 0 "R?" H 2630 4320 50  0000 L CNN
F 1 "6.2K" H 2630 4260 50  0000 L CNN
F 2 "" H 2600 4300 50  0001 C CNN
F 3 "" H 2600 4300 50  0001 C CNN
	1    2600 4300
	1    0    0    -1  
$EndComp
$Comp
L R_Small R?
U 1 1 59837ABD
P 2400 5100
F 0 "R?" H 2430 5120 50  0000 L CNN
F 1 "51K" H 2430 5060 50  0000 L CNN
F 2 "" H 2400 5100 50  0001 C CNN
F 3 "" H 2400 5100 50  0001 C CNN
	1    2400 5100
	0    1    1    0   
$EndComp
$Comp
L R_Small R?
U 1 1 59837CCD
P 2000 4800
F 0 "R?" H 2030 4820 50  0000 L CNN
F 1 "2K" H 2030 4760 50  0000 L CNN
F 2 "" H 2000 4800 50  0001 C CNN
F 3 "" H 2000 4800 50  0001 C CNN
	1    2000 4800
	0    1    1    0   
$EndComp
Text Label 1200 4800 0    60   ~ 0
DHT22_WR
Text Label 3300 4500 2    60   ~ 0
DHT22
$Comp
L Crystal_Small Y?
U 1 1 5983830B
P 6700 4200
F 0 "Y?" H 6700 4300 50  0000 C CNN
F 1 "8MHz" H 6700 4100 50  0000 C CNN
F 2 "" H 6700 4200 50  0001 C CNN
F 3 "" H 6700 4200 50  0001 C CNN
	1    6700 4200
	0    1    1    0   
$EndComp
$Comp
L C_Small C?
U 1 1 5983847E
P 6450 4000
F 0 "C?" H 6460 4070 50  0000 L CNN
F 1 "22" H 6460 3920 50  0000 L CNN
F 2 "" H 6450 4000 50  0000 C CNN
F 3 "" H 6450 4000 50  0000 C CNN
	1    6450 4000
	0    1    1    0   
$EndComp
$Comp
L C_Small C?
U 1 1 598385B2
P 6450 4400
F 0 "C?" H 6460 4470 50  0000 L CNN
F 1 "22" H 6460 4320 50  0000 L CNN
F 2 "" H 6450 4400 50  0000 C CNN
F 3 "" H 6450 4400 50  0000 C CNN
	1    6450 4400
	0    1    1    0   
$EndComp
$Comp
L GND #PWR?
U 1 1 598387EC
P 6150 4500
F 0 "#PWR?" H 6150 4250 50  0001 C CNN
F 1 "GND" H 6150 4350 50  0000 C CNN
F 2 "" H 6150 4500 50  0000 C CNN
F 3 "" H 6150 4500 50  0000 C CNN
	1    6150 4500
	1    0    0    -1  
$EndComp
$Comp
L GND #PWR?
U 1 1 59838B89
P 7950 6200
F 0 "#PWR?" H 7950 5950 50  0001 C CNN
F 1 "GND" H 7950 6050 50  0000 C CNN
F 2 "" H 7950 6200 50  0000 C CNN
F 3 "" H 7950 6200 50  0000 C CNN
	1    7950 6200
	1    0    0    -1  
$EndComp
$Comp
L +3.3V #PWR?
U 1 1 59838D87
P 7850 2350
F 0 "#PWR?" H 7850 2200 50  0001 C CNN
F 1 "+3.3V" H 7850 2490 50  0000 C CNN
F 2 "" H 7850 2350 50  0000 C CNN
F 3 "" H 7850 2350 50  0000 C CNN
	1    7850 2350
	1    0    0    -1  
$EndComp
$Comp
L C_Small C?
U 1 1 59838EBD
P 8150 2800
F 0 "C?" H 8160 2870 50  0000 L CNN
F 1 "0.1" H 8160 2720 50  0000 L CNN
F 2 "" H 8150 2800 50  0000 C CNN
F 3 "" H 8150 2800 50  0000 C CNN
	1    8150 2800
	0    1    1    0   
$EndComp
$Comp
L C_Small C?
U 1 1 59838FAF
P 8150 2600
F 0 "C?" H 8160 2670 50  0000 L CNN
F 1 "0.1" H 8160 2520 50  0000 L CNN
F 2 "" H 8150 2600 50  0000 C CNN
F 3 "" H 8150 2600 50  0000 C CNN
	1    8150 2600
	0    1    1    0   
$EndComp
$Comp
L GND #PWR?
U 1 1 5983902A
P 8350 2900
F 0 "#PWR?" H 8350 2650 50  0001 C CNN
F 1 "GND" H 8350 2750 50  0000 C CNN
F 2 "" H 8350 2900 50  0000 C CNN
F 3 "" H 8350 2900 50  0000 C CNN
	1    8350 2900
	1    0    0    -1  
$EndComp
Text Label 9500 3600 2    60   ~ 0
SEL_SI4432
Text Label 9500 3500 2    60   ~ 0
SEL_BMP280
$Comp
L R_Small R?
U 1 1 5986EFA4
P 5450 3400
F 0 "R?" H 5480 3420 50  0000 L CNN
F 1 "100" H 5480 3360 50  0000 L CNN
F 2 "" H 5450 3400 50  0001 C CNN
F 3 "" H 5450 3400 50  0001 C CNN
	1    5450 3400
	-1   0    0    1   
$EndComp
$Comp
L C_Small C?
U 1 1 5986F4E2
P 5450 4050
F 0 "C?" H 5460 4120 50  0000 L CNN
F 1 "0.1" H 5460 3970 50  0000 L CNN
F 2 "" H 5450 4050 50  0000 C CNN
F 3 "" H 5450 4050 50  0000 C CNN
	1    5450 4050
	-1   0    0    1   
$EndComp
$Comp
L GND #PWR?
U 1 1 5986F572
P 5750 4350
F 0 "#PWR?" H 5750 4100 50  0001 C CNN
F 1 "GND" H 5750 4200 50  0000 C CNN
F 2 "" H 5750 4350 50  0000 C CNN
F 3 "" H 5750 4350 50  0000 C CNN
	1    5750 4350
	1    0    0    -1  
$EndComp
$Comp
L +3.3V #PWR?
U 1 1 5986FAC3
P 5450 3200
F 0 "#PWR?" H 5450 3050 50  0001 C CNN
F 1 "+3.3V" H 5450 3340 50  0000 C CNN
F 2 "" H 5450 3200 50  0000 C CNN
F 3 "" H 5450 3200 50  0000 C CNN
	1    5450 3200
	1    0    0    -1  
$EndComp
Text Label 9500 5300 2    60   ~ 0
DHT22_WR
Text Label 9500 5400 2    60   ~ 0
DHT22_RD
$Comp
L AM2302 U?
U 1 1 598707EC
P 14800 4250
F 0 "U?" H 14800 4000 60  0000 C CNN
F 1 "AM2302" H 14800 4500 60  0000 C CNN
F 2 "" H 14950 4250 60  0001 C CNN
F 3 "" H 14950 4250 60  0001 C CNN
	1    14800 4250
	1    0    0    -1  
$EndComp
$Comp
L +5V #PWR?
U 1 1 59870A21
P 14400 3550
F 0 "#PWR?" H 14400 3400 50  0001 C CNN
F 1 "+5V" H 14400 3690 50  0000 C CNN
F 2 "" H 14400 3550 50  0001 C CNN
F 3 "" H 14400 3550 50  0001 C CNN
	1    14400 3550
	1    0    0    -1  
$EndComp
$Comp
L C_Small C?
U 1 1 59870B85
P 14600 3750
F 0 "C?" H 14610 3820 50  0000 L CNN
F 1 "0.1" H 14610 3670 50  0000 L CNN
F 2 "" H 14600 3750 50  0000 C CNN
F 3 "" H 14600 3750 50  0000 C CNN
	1    14600 3750
	0    1    1    0   
$EndComp
$Comp
L GND #PWR?
U 1 1 59870E77
P 14400 4700
F 0 "#PWR?" H 14400 4450 50  0001 C CNN
F 1 "GND" H 14400 4550 50  0000 C CNN
F 2 "" H 14400 4700 50  0000 C CNN
F 3 "" H 14400 4700 50  0000 C CNN
	1    14400 4700
	1    0    0    -1  
$EndComp
Text Label 14050 4200 0    60   ~ 0
DHT22
$Comp
L R_Small R?
U 1 1 598BD60D
P 1900 6100
F 0 "R?" H 1930 6120 50  0000 L CNN
F 1 "6.2K" H 1930 6060 50  0000 L CNN
F 2 "" H 1900 6100 50  0001 C CNN
F 3 "" H 1900 6100 50  0001 C CNN
	1    1900 6100
	0    1    1    0   
$EndComp
$Comp
L D_Zener_Small D?
U 1 1 598BD7FF
P 2100 6300
F 0 "D?" H 2100 6390 50  0000 C CNN
F 1 "3V0" H 2100 6210 50  0000 C CNN
F 2 "" V 2100 6300 50  0001 C CNN
F 3 "" V 2100 6300 50  0001 C CNN
	1    2100 6300
	0    1    1    0   
$EndComp
Text Label 1150 6100 0    60   ~ 0
DHT22
$Comp
L GND #PWR?
U 1 1 598BDAD2
P 2100 6500
F 0 "#PWR?" H 2100 6250 50  0001 C CNN
F 1 "GND" H 2100 6350 50  0000 C CNN
F 2 "" H 2100 6500 50  0000 C CNN
F 3 "" H 2100 6500 50  0000 C CNN
	1    2100 6500
	1    0    0    -1  
$EndComp
Text Label 2700 6100 2    60   ~ 0
DHT22_RD
$Comp
L LM1117-ADJ U?
U 1 1 598BF8E7
P 6500 1600
F 0 "U?" H 6600 1350 50  0000 C CNN
F 1 "LM1117-ADJ" H 6500 1850 50  0000 C CNN
F 2 "" H 6500 1600 50  0001 C CNN
F 3 "" H 6500 1600 50  0001 C CNN
	1    6500 1600
	1    0    0    -1  
$EndComp
Text Label 9500 4700 2    60   ~ 0
ACC_SENSE
Text Label 9500 4800 2    60   ~ 0
SBA_SENSE
$Comp
L CP_Small C?
U 1 1 59929476
P 6100 1800
F 0 "C?" H 6110 1870 50  0000 L CNN
F 1 "10.0" H 6110 1720 50  0000 L CNN
F 2 "" H 6100 1800 50  0001 C CNN
F 3 "" H 6100 1800 50  0001 C CNN
	1    6100 1800
	1    0    0    -1  
$EndComp
$Comp
L CP_Small C?
U 1 1 59929546
P 6900 1800
F 0 "C?" H 6910 1870 50  0000 L CNN
F 1 "22.0" H 6910 1720 50  0000 L CNN
F 2 "" H 6900 1800 50  0001 C CNN
F 3 "" H 6900 1800 50  0001 C CNN
	1    6900 1800
	1    0    0    -1  
$EndComp
$Comp
L GND #PWR?
U 1 1 599297C8
P 6500 2100
F 0 "#PWR?" H 6500 1850 50  0001 C CNN
F 1 "GND" H 6500 1950 50  0000 C CNN
F 2 "" H 6500 2100 50  0000 C CNN
F 3 "" H 6500 2100 50  0000 C CNN
	1    6500 2100
	1    0    0    -1  
$EndComp
$Comp
L +3.3V #PWR?
U 1 1 59929B4E
P 6900 1500
F 0 "#PWR?" H 6900 1350 50  0001 C CNN
F 1 "+3.3V" H 6900 1640 50  0000 C CNN
F 2 "" H 6900 1500 50  0000 C CNN
F 3 "" H 6900 1500 50  0000 C CNN
	1    6900 1500
	1    0    0    -1  
$EndComp
$Comp
L +5V #PWR?
U 1 1 59929D0D
P 6100 1500
F 0 "#PWR?" H 6100 1350 50  0001 C CNN
F 1 "+5V" H 6100 1640 50  0000 C CNN
F 2 "" H 6100 1500 50  0001 C CNN
F 3 "" H 6100 1500 50  0001 C CNN
	1    6100 1500
	1    0    0    -1  
$EndComp
$Comp
L C_Small C?
U 1 1 5992A029
P 7250 1800
F 0 "C?" H 7260 1870 50  0000 L CNN
F 1 "0.1" H 7260 1720 50  0000 L CNN
F 2 "" H 7250 1800 50  0000 C CNN
F 3 "" H 7250 1800 50  0000 C CNN
	1    7250 1800
	-1   0    0    1   
$EndComp
$Comp
L C_Small C?
U 1 1 5992A0CF
P 5850 1800
F 0 "C?" H 5860 1870 50  0000 L CNN
F 1 "0.1" H 5860 1720 50  0000 L CNN
F 2 "" H 5850 1800 50  0000 C CNN
F 3 "" H 5850 1800 50  0000 C CNN
	1    5850 1800
	-1   0    0    1   
$EndComp
Text Label 7050 5500 2    60   ~ 0
REF_3V
Text Label 6500 3700 0    60   ~ 0
REF_3V
$Comp
L GND #PWR?
U 1 1 599A7205
P 2600 5200
F 0 "#PWR?" H 2600 4950 50  0001 C CNN
F 1 "GND" H 2600 5050 50  0000 C CNN
F 2 "" H 2600 5200 50  0000 C CNN
F 3 "" H 2600 5200 50  0000 C CNN
	1    2600 5200
	1    0    0    -1  
$EndComp
$Comp
L BMP280M U?
U 1 1 599A75EE
P 11650 1650
F 0 "U?" H 11650 1300 60  0000 C CNN
F 1 "BMP280M" H 11650 2000 60  0000 C CNN
F 2 "" H 11650 1650 60  0001 C CNN
F 3 "" H 11650 1650 60  0001 C CNN
	1    11650 1650
	1    0    0    -1  
$EndComp
$Comp
L +3.3V #PWR?
U 1 1 599A76F7
P 11100 900
F 0 "#PWR?" H 11100 750 50  0001 C CNN
F 1 "+3.3V" H 11100 1040 50  0000 C CNN
F 2 "" H 11100 900 50  0000 C CNN
F 3 "" H 11100 900 50  0000 C CNN
	1    11100 900 
	1    0    0    -1  
$EndComp
$Comp
L C_Small C?
U 1 1 599A78A7
P 10900 1300
F 0 "C?" H 10910 1370 50  0000 L CNN
F 1 "0.1" H 10910 1220 50  0000 L CNN
F 2 "" H 10900 1300 50  0000 C CNN
F 3 "" H 10900 1300 50  0000 C CNN
	1    10900 1300
	0    1    1    0   
$EndComp
$Comp
L GND #PWR?
U 1 1 599A7CF9
P 10400 2000
F 0 "#PWR?" H 10400 1750 50  0001 C CNN
F 1 "GND" H 10400 1850 50  0000 C CNN
F 2 "" H 10400 2000 50  0000 C CNN
F 3 "" H 10400 2000 50  0000 C CNN
	1    10400 2000
	1    0    0    -1  
$EndComp
Text Label 10500 1800 0    60   ~ 0
SEL_BMP280
Text Label 10500 1600 0    60   ~ 0
DEV_SCK
Text Label 10500 1900 0    60   ~ 0
DEV_MISO
Text Label 10500 1700 0    60   ~ 0
DEV_MOSI
Text Label 9500 3400 2    60   ~ 0
WIND_SENS
$Comp
L R_Small R?
U 1 1 59C19330
P 6850 3200
F 0 "R?" H 6880 3220 50  0000 L CNN
F 1 "15K" H 6880 3160 50  0000 L CNN
F 2 "" H 6850 3200 50  0001 C CNN
F 3 "" H 6850 3200 50  0001 C CNN
	1    6850 3200
	1    0    0    -1  
$EndComp
$Comp
L CONN_01X02 P?
U 1 1 59C6B90D
P 15600 6250
F 0 "P?" H 15600 6400 50  0000 C CNN
F 1 "ACC" V 15700 6250 50  0000 C CNN
F 2 "" H 15600 6250 50  0000 C CNN
F 3 "" H 15600 6250 50  0000 C CNN
	1    15600 6250
	1    0    0    -1  
$EndComp
$Comp
L GND #PWR?
U 1 1 59C6BF17
P 15200 6400
F 0 "#PWR?" H 15200 6150 50  0001 C CNN
F 1 "GND" H 15200 6250 50  0000 C CNN
F 2 "" H 15200 6400 50  0000 C CNN
F 3 "" H 15200 6400 50  0000 C CNN
	1    15200 6400
	1    0    0    -1  
$EndComp
$Comp
L FUSE F?
U 1 1 59C6C0EF
P 14950 6200
F 0 "F?" H 15050 6250 50  0000 C CNN
F 1 "1A" H 14850 6150 50  0000 C CNN
F 2 "" H 14950 6200 50  0000 C CNN
F 3 "" H 14950 6200 50  0000 C CNN
	1    14950 6200
	1    0    0    -1  
$EndComp
$Comp
L IRLTS2242 U?
U 1 1 59C6BCFE
P 14200 6100
F 0 "U?" H 14200 5900 60  0000 C CNN
F 1 "IRLTS2242" H 14200 6300 60  0000 C CNN
F 2 "" H 14200 6100 60  0000 C CNN
F 3 "" H 14200 6100 60  0000 C CNN
	1    14200 6100
	1    0    0    -1  
$EndComp
$Comp
L +12V #PWR?
U 1 1 59C6BFC1
P 14600 5700
F 0 "#PWR?" H 14600 5550 50  0001 C CNN
F 1 "+12V" H 14600 5840 50  0000 C CNN
F 2 "" H 14600 5700 50  0000 C CNN
F 3 "" H 14600 5700 50  0000 C CNN
	1    14600 5700
	1    0    0    -1  
$EndComp
$Comp
L LM393 U?
U 1 1 59C6C669
P 12900 6200
F 0 "U?" H 13050 6350 50  0000 C CNN
F 1 "LM393" H 13150 6050 50  0000 C CNN
F 2 "" H 12900 6200 50  0000 C CNN
F 3 "" H 12900 6200 50  0000 C CNN
	1    12900 6200
	1    0    0    -1  
$EndComp
$Comp
L +12P #PWR?
U 1 1 59C6CBF5
P 14600 6500
F 0 "#PWR?" H 14600 6350 50  0001 C CNN
F 1 "+12P" H 14600 6640 50  0000 C CNN
F 2 "" H 14600 6500 50  0000 C CNN
F 3 "" H 14600 6500 50  0000 C CNN
	1    14600 6500
	-1   0    0    1   
$EndComp
$Comp
L GND #PWR?
U 1 1 59C6CFCE
P 12800 7200
F 0 "#PWR?" H 12800 6950 50  0001 C CNN
F 1 "GND" H 12800 7050 50  0000 C CNN
F 2 "" H 12800 7200 50  0000 C CNN
F 3 "" H 12800 7200 50  0000 C CNN
	1    12800 7200
	1    0    0    -1  
$EndComp
$Comp
L +12P #PWR?
U 1 1 59C6D0A6
P 12800 5500
F 0 "#PWR?" H 12800 5350 50  0001 C CNN
F 1 "+12P" H 12800 5640 50  0000 C CNN
F 2 "" H 12800 5500 50  0000 C CNN
F 3 "" H 12800 5500 50  0000 C CNN
	1    12800 5500
	1    0    0    -1  
$EndComp
$Comp
L R_Small R?
U 1 1 59C6DA67
P 11800 5900
F 0 "R?" H 11830 5920 50  0000 L CNN
F 1 "15K" H 11830 5860 50  0000 L CNN
F 2 "" H 11800 5900 50  0001 C CNN
F 3 "" H 11800 5900 50  0001 C CNN
	1    11800 5900
	1    0    0    -1  
$EndComp
$Comp
L ZENERsmall D?
U 1 1 59C6DD34
P 11800 6400
F 0 "D?" H 11800 6500 50  0000 C CNN
F 1 "3.0" H 11800 6300 50  0000 C CNN
F 2 "" H 11800 6400 50  0000 C CNN
F 3 "" H 11800 6400 50  0000 C CNN
	1    11800 6400
	0    1    1    0   
$EndComp
$Comp
L R_Small R?
U 1 1 59D9DCE7
P 13300 6000
F 0 "R?" H 13330 6020 50  0000 L CNN
F 1 "6.2K" H 13330 5960 50  0000 L CNN
F 2 "" H 13300 6000 50  0001 C CNN
F 3 "" H 13300 6000 50  0001 C CNN
	1    13300 6000
	1    0    0    -1  
$EndComp
$Comp
L R_Small R?
U 1 1 59D9EB82
P 12050 5900
F 0 "R?" H 12080 5920 50  0000 L CNN
F 1 "15K" H 12080 5860 50  0000 L CNN
F 2 "" H 12050 5900 50  0001 C CNN
F 3 "" H 12050 5900 50  0001 C CNN
	1    12050 5900
	1    0    0    -1  
$EndComp
$Comp
L R_Small R?
U 1 1 59D9EC29
P 12050 6500
F 0 "R?" H 12080 6520 50  0000 L CNN
F 1 "6.2K" H 12080 6460 50  0000 L CNN
F 2 "" H 12050 6500 50  0001 C CNN
F 3 "" H 12050 6500 50  0001 C CNN
	1    12050 6500
	1    0    0    -1  
$EndComp
$Comp
L R_Small R?
U 1 1 59D9F7E4
P 12250 6100
F 0 "R?" H 12280 6120 50  0000 L CNN
F 1 "100" H 12280 6060 50  0000 L CNN
F 2 "" H 12250 6100 50  0001 C CNN
F 3 "" H 12250 6100 50  0001 C CNN
	1    12250 6100
	0    1    1    0   
$EndComp
$Comp
L ZENERsmall D?
U 1 1 59DA1A42
P 6700 5700
F 0 "D?" H 6700 5800 50  0000 C CNN
F 1 "3.0" H 6700 5600 50  0000 C CNN
F 2 "" H 6700 5700 50  0000 C CNN
F 3 "" H 6700 5700 50  0000 C CNN
	1    6700 5700
	0    1    1    0   
$EndComp
$Comp
L R_Small R?
U 1 1 59DA1DAD
P 6700 5300
F 0 "R?" H 6730 5320 50  0000 L CNN
F 1 "6.2K" H 6730 5260 50  0000 L CNN
F 2 "" H 6700 5300 50  0001 C CNN
F 3 "" H 6700 5300 50  0001 C CNN
	1    6700 5300
	-1   0    0    1   
$EndComp
$Comp
L +5V #PWR?
U 1 1 59DA25EB
P 6700 5100
F 0 "#PWR?" H 6700 4950 50  0001 C CNN
F 1 "+5V" H 6700 5240 50  0000 C CNN
F 2 "" H 6700 5100 50  0001 C CNN
F 3 "" H 6700 5100 50  0001 C CNN
	1    6700 5100
	1    0    0    -1  
$EndComp
$Comp
L +12V #PWR?
U 1 1 59DA2E12
P 6300 5100
F 0 "#PWR?" H 6300 4950 50  0001 C CNN
F 1 "+12V" H 6300 5240 50  0000 C CNN
F 2 "" H 6300 5100 50  0000 C CNN
F 3 "" H 6300 5100 50  0000 C CNN
	1    6300 5100
	1    0    0    -1  
$EndComp
$Comp
L R_Small R?
U 1 1 59DA30A1
P 6300 5300
F 0 "R?" H 6330 5320 50  0000 L CNN
F 1 "6.2K" H 6330 5260 50  0000 L CNN
F 2 "" H 6300 5300 50  0001 C CNN
F 3 "" H 6300 5300 50  0001 C CNN
	1    6300 5300
	-1   0    0    1   
$EndComp
$Comp
L R_Small R?
U 1 1 59DA3152
P 6300 5700
F 0 "R?" H 6330 5720 50  0000 L CNN
F 1 "1.33K" H 6330 5660 50  0000 L CNN
F 2 "" H 6300 5700 50  0001 C CNN
F 3 "" H 6300 5700 50  0001 C CNN
	1    6300 5700
	-1   0    0    1   
$EndComp
Text Label 5700 5500 0    60   ~ 0
ACC_SENSE
$Comp
L CONN_01X05 P?
U 1 1 59DA531B
P 13400 3500
F 0 "P?" H 13400 3800 50  0000 C CNN
F 1 "RENCOD" V 13500 3500 50  0000 C CNN
F 2 "" H 13400 3500 50  0000 C CNN
F 3 "" H 13400 3500 50  0000 C CNN
	1    13400 3500
	1    0    0    -1  
$EndComp
$Comp
L +5V #PWR?
U 1 1 59DA5456
P 13000 2800
F 0 "#PWR?" H 13000 2650 50  0001 C CNN
F 1 "+5V" H 13000 2940 50  0000 C CNN
F 2 "" H 13000 2800 50  0001 C CNN
F 3 "" H 13000 2800 50  0001 C CNN
	1    13000 2800
	1    0    0    -1  
$EndComp
$Comp
L GND #PWR?
U 1 1 59DA54F4
P 13000 4100
F 0 "#PWR?" H 13000 3850 50  0001 C CNN
F 1 "GND" H 13000 3950 50  0000 C CNN
F 2 "" H 13000 4100 50  0000 C CNN
F 3 "" H 13000 4100 50  0000 C CNN
	1    13000 4100
	1    0    0    -1  
$EndComp
$Comp
L C_Small C?
U 1 1 59DA5592
P 13750 3500
F 0 "C?" H 13760 3570 50  0000 L CNN
F 1 "0.1" H 13760 3420 50  0000 L CNN
F 2 "" H 13750 3500 50  0000 C CNN
F 3 "" H 13750 3500 50  0000 C CNN
	1    13750 3500
	-1   0    0    1   
$EndComp
$Comp
L R_Small R?
U 1 1 59DA5F21
P 12700 3200
F 0 "R?" H 12730 3220 50  0000 L CNN
F 1 "6.2K" H 12730 3160 50  0000 L CNN
F 2 "" H 12700 3200 50  0001 C CNN
F 3 "" H 12700 3200 50  0001 C CNN
	1    12700 3200
	1    0    0    -1  
$EndComp
Wire Wire Line
	6500 3400 7000 3400
Wire Wire Line
	15800 650  15800 800 
Wire Wire Line
	15450 800  15900 800 
Wire Wire Line
	15900 800  15900 900 
Connection ~ 15800 800 
Wire Wire Line
	15450 1200 15900 1200
Wire Wire Line
	15800 900  15800 1300
Wire Wire Line
	15450 1100 15800 1100
Connection ~ 15800 1200
Wire Wire Line
	15450 1000 15800 1000
Connection ~ 15800 1100
Wire Wire Line
	15450 900  15800 900 
Connection ~ 15800 1000
Wire Wire Line
	15900 1200 15900 1100
Wire Wire Line
	14100 800  15200 800 
Wire Wire Line
	14100 1000 15200 1000
Wire Wire Line
	14100 1100 15200 1100
Wire Wire Line
	14100 1200 15200 1200
Wire Wire Line
	15400 1800 14800 1800
Wire Wire Line
	15400 2200 14800 2200
Wire Wire Line
	15400 2600 14800 2600
Wire Wire Line
	13700 1800 14300 1800
Wire Wire Line
	13700 2200 14300 2200
Wire Wire Line
	13700 2600 14300 2600
Wire Wire Line
	13700 2000 14550 2000
Wire Wire Line
	14550 2000 14550 1900
Wire Wire Line
	13700 2400 14550 2400
Wire Wire Line
	14550 2400 14550 2300
Wire Wire Line
	13700 2800 14550 2800
Wire Wire Line
	14550 2700 14550 2900
Connection ~ 14550 2800
Wire Wire Line
	14950 2900 14950 3200
Wire Wire Line
	14950 3200 14550 3200
Wire Wire Line
	14550 3200 14550 3100
Wire Wire Line
	3500 1300 3500 2900
Wire Wire Line
	3400 1300 3500 1300
Wire Wire Line
	3650 2700 3650 2800
Wire Wire Line
	3500 2800 3850 2800
Connection ~ 3500 2800
Wire Wire Line
	3850 2800 3850 2700
Connection ~ 3650 2800
Wire Wire Line
	4100 1900 3400 1900
Wire Wire Line
	4100 1800 3400 1800
Wire Wire Line
	4100 1700 3400 1700
Wire Wire Line
	4100 1600 3400 1600
Wire Wire Line
	4100 1500 3400 1500
Wire Wire Line
	4100 1400 3400 1400
Wire Wire Line
	3400 2000 3850 2000
Wire Wire Line
	3600 2000 3600 1200
Wire Wire Line
	3400 2400 3500 2400
Connection ~ 3500 2400
Wire Wire Line
	3650 2000 3650 2500
Connection ~ 3600 2000
Wire Wire Line
	3850 2000 3850 2500
Connection ~ 3650 2000
Wire Wire Line
	2600 4200 2600 4100
Wire Wire Line
	2600 4400 2600 4600
Wire Wire Line
	2300 5100 2200 5100
Wire Wire Line
	2200 5100 2200 4800
Wire Wire Line
	2100 4800 2300 4800
Wire Wire Line
	2500 5100 2600 5100
Wire Wire Line
	2600 5000 2600 5200
Connection ~ 2600 5100
Connection ~ 2200 4800
Wire Wire Line
	1200 4800 1900 4800
Wire Wire Line
	3300 4500 2600 4500
Connection ~ 2600 4500
Wire Wire Line
	7000 4100 6900 4100
Wire Wire Line
	6900 4100 6900 4000
Wire Wire Line
	6900 4000 6550 4000
Wire Wire Line
	6700 4100 6700 4000
Connection ~ 6700 4000
Wire Wire Line
	7000 4300 6900 4300
Wire Wire Line
	6900 4300 6900 4400
Wire Wire Line
	6900 4400 6550 4400
Wire Wire Line
	6700 4300 6700 4400
Connection ~ 6700 4400
Wire Wire Line
	6350 4400 6150 4400
Wire Wire Line
	6150 4000 6150 4500
Wire Wire Line
	6350 4000 6150 4000
Connection ~ 6150 4400
Wire Wire Line
	7950 6000 7950 6200
Wire Wire Line
	7850 6000 7850 6100
Wire Wire Line
	6300 6100 7950 6100
Connection ~ 7950 6100
Wire Wire Line
	7850 2350 7850 3100
Wire Wire Line
	6850 2600 8050 2600
Connection ~ 7850 2600
Wire Wire Line
	7950 3100 7950 2600
Connection ~ 7950 2600
Wire Wire Line
	8250 2800 8350 2800
Wire Wire Line
	8350 2600 8350 2900
Wire Wire Line
	8250 2600 8350 2600
Connection ~ 8350 2800
Wire Wire Line
	9500 3500 8900 3500
Wire Wire Line
	8900 3600 9500 3600
Wire Wire Line
	9500 3700 8900 3700
Wire Wire Line
	9500 3800 8900 3800
Wire Wire Line
	9500 3900 8900 3900
Wire Wire Line
	5450 4150 5450 4250
Wire Wire Line
	5450 4250 5900 4250
Wire Wire Line
	7000 3800 5900 3800
Wire Wire Line
	5900 3800 5900 4250
Wire Wire Line
	7000 3600 5450 3600
Wire Wire Line
	5450 3500 5450 3950
Wire Wire Line
	8050 2800 7850 2800
Connection ~ 7850 2800
Wire Wire Line
	5450 3300 5450 3200
Connection ~ 5450 3600
Wire Wire Line
	9500 5200 8900 5200
Wire Wire Line
	9500 5300 8900 5300
Wire Wire Line
	9500 5400 8900 5400
Wire Wire Line
	14400 3550 14400 4100
Wire Wire Line
	14400 4100 14500 4100
Wire Wire Line
	14500 3750 14400 3750
Connection ~ 14400 3750
Wire Wire Line
	14400 4700 14400 4400
Wire Wire Line
	14400 4400 14500 4400
Wire Wire Line
	14700 3750 15200 3750
Wire Wire Line
	15200 3750 15200 4600
Wire Wire Line
	15200 4600 14400 4600
Connection ~ 14400 4600
Wire Wire Line
	14050 4200 14500 4200
Wire Wire Line
	2100 6200 2100 6100
Wire Wire Line
	2000 6100 2700 6100
Wire Wire Line
	1150 6100 1800 6100
Wire Wire Line
	2100 6500 2100 6400
Connection ~ 2100 6100
Wire Wire Line
	9500 4700 8900 4700
Wire Wire Line
	9500 4800 8900 4800
Wire Wire Line
	6900 1500 6900 1700
Wire Wire Line
	6800 1600 7250 1600
Wire Wire Line
	5850 1600 6200 1600
Wire Wire Line
	6100 1500 6100 1700
Wire Wire Line
	6500 1900 6500 2100
Wire Wire Line
	6900 2000 6900 1900
Wire Wire Line
	5850 2000 7250 2000
Connection ~ 6500 2000
Wire Wire Line
	6100 1900 6100 2000
Connection ~ 6900 1600
Connection ~ 6100 1600
Wire Wire Line
	7250 1600 7250 1700
Wire Wire Line
	7250 2000 7250 1900
Connection ~ 6900 2000
Wire Wire Line
	5850 1900 5850 2000
Connection ~ 6100 2000
Wire Wire Line
	5850 1700 5850 1600
Wire Wire Line
	5750 4250 5750 4350
Connection ~ 5750 4250
Wire Wire Line
	6500 3700 7000 3700
Wire Wire Line
	11200 1400 11100 1400
Wire Wire Line
	11100 1400 11100 900 
Wire Wire Line
	10400 1500 11200 1500
Wire Wire Line
	10700 1500 10700 1300
Wire Wire Line
	10700 1300 10800 1300
Wire Wire Line
	11000 1300 11100 1300
Connection ~ 11100 1300
Wire Wire Line
	10400 1500 10400 2000
Connection ~ 10700 1500
Wire Wire Line
	10500 1600 11200 1600
Wire Wire Line
	10500 1700 11200 1700
Wire Wire Line
	10500 1800 11200 1800
Wire Wire Line
	10500 1900 11200 1900
Wire Wire Line
	9500 3400 8900 3400
Wire Wire Line
	6850 3100 6850 2600
Wire Wire Line
	6850 3300 6850 3400
Connection ~ 6850 3400
Wire Wire Line
	14700 6200 14500 6200
Wire Wire Line
	14500 6000 14600 6000
Wire Wire Line
	14600 5700 14600 6100
Wire Wire Line
	14600 6100 14500 6100
Connection ~ 14600 6000
Wire Wire Line
	13900 6100 13800 6100
Wire Wire Line
	13800 6100 13800 5800
Wire Wire Line
	13800 5800 14600 5800
Connection ~ 14600 5800
Wire Wire Line
	13900 6000 13800 6000
Connection ~ 13800 6000
Wire Wire Line
	15400 6200 15200 6200
Wire Wire Line
	15400 6300 15200 6300
Wire Wire Line
	15200 6300 15200 6400
Wire Wire Line
	12800 6500 12800 7200
Wire Wire Line
	12800 5900 12800 5500
Wire Wire Line
	13900 6200 13200 6200
Wire Wire Line
	11800 6000 11800 6300
Wire Wire Line
	11800 5800 11800 5700
Wire Wire Line
	11800 5700 13300 5700
Connection ~ 12800 5700
Wire Wire Line
	13300 5700 13300 5900
Wire Wire Line
	11800 6500 11800 6700
Wire Wire Line
	11800 6700 12800 6700
Connection ~ 12800 6700
Wire Wire Line
	12050 6000 12050 6400
Wire Wire Line
	12050 5800 12050 5700
Connection ~ 12050 5700
Wire Wire Line
	12050 6600 12050 6700
Connection ~ 12050 6700
Wire Wire Line
	12150 6100 11800 6100
Connection ~ 11800 6100
Wire Wire Line
	12350 6100 12600 6100
Wire Wire Line
	12600 6300 12050 6300
Connection ~ 12050 6300
Connection ~ 12450 6100
Wire Wire Line
	6700 5400 6700 5600
Wire Wire Line
	6700 5800 6700 6100
Connection ~ 7850 6100
Wire Wire Line
	7050 5500 6700 5500
Connection ~ 6700 5500
Wire Wire Line
	6700 5100 6700 5200
Wire Wire Line
	6300 5800 6300 6100
Connection ~ 6700 6100
Wire Wire Line
	6300 5200 6300 5100
Wire Wire Line
	6300 5400 6300 5600
Wire Wire Line
	5700 5500 6300 5500
Connection ~ 6300 5500
Wire Wire Line
	14600 6200 14600 6500
Connection ~ 14600 6200
Wire Wire Line
	13200 3300 13000 3300
Wire Wire Line
	13000 3300 13000 2800
Wire Wire Line
	13200 3600 13000 3600
Wire Wire Line
	13000 3600 13000 4100
Wire Wire Line
	13200 3700 13000 3700
Connection ~ 13000 3700
Wire Wire Line
	13750 3000 13750 3400
Wire Wire Line
	12450 3000 13750 3000
Connection ~ 13000 3000
Wire Wire Line
	13750 3600 13750 3950
Wire Wire Line
	13750 3950 13000 3950
Connection ~ 13000 3950
Wire Wire Line
	11800 3400 13200 3400
Wire Wire Line
	12700 3300 12700 3400
Connection ~ 12700 3400
$Comp
L +3.3V #PWR?
U 1 1 59DA69D7
P 12700 2800
F 0 "#PWR?" H 12700 2650 50  0001 C CNN
F 1 "+3.3V" H 12700 2940 50  0000 C CNN
F 2 "" H 12700 2800 50  0000 C CNN
F 3 "" H 12700 2800 50  0000 C CNN
	1    12700 2800
	1    0    0    -1  
$EndComp
Wire Wire Line
	12700 2800 12700 3100
$Comp
L R_Small R?
U 1 1 59DA6D6D
P 12450 3200
F 0 "R?" H 12480 3220 50  0000 L CNN
F 1 "15K" H 12480 3160 50  0000 L CNN
F 2 "" H 12450 3200 50  0001 C CNN
F 3 "" H 12450 3200 50  0001 C CNN
	1    12450 3200
	1    0    0    -1  
$EndComp
Wire Wire Line
	12450 3100 12450 3000
Wire Wire Line
	13200 3500 12450 3500
Wire Wire Line
	12450 3500 12450 3300
Text Label 11800 3400 0    60   ~ 0
WIND_SENS
NoConn ~ 8900 4100
NoConn ~ 8900 4200
NoConn ~ 8900 4300
NoConn ~ 8900 4400
NoConn ~ 8900 4500
NoConn ~ 8900 4600
NoConn ~ 8900 5600
NoConn ~ 8900 5700
$Comp
L Led_Small D?
U 1 1 59DA8972
P 9200 5700
F 0 "D?" H 9150 5825 50  0000 L CNN
F 1 "Led_Small" H 9025 5600 50  0000 L CNN
F 2 "" V 9200 5700 50  0000 C CNN
F 3 "" V 9200 5700 50  0000 C CNN
	1    9200 5700
	0    1    1    0   
$EndComp
$Comp
L R_Small R?
U 1 1 59DA8ABA
P 9200 6000
F 0 "R?" H 9230 6020 50  0000 L CNN
F 1 "1K" H 9230 5960 50  0000 L CNN
F 2 "" H 9200 6000 50  0001 C CNN
F 3 "" H 9200 6000 50  0001 C CNN
	1    9200 6000
	1    0    0    -1  
$EndComp
$Comp
L +3.3V #PWR?
U 1 1 59DA8BFA
P 9200 6200
F 0 "#PWR?" H 9200 6050 50  0001 C CNN
F 1 "+3.3V" H 9200 6340 50  0000 C CNN
F 2 "" H 9200 6200 50  0000 C CNN
F 3 "" H 9200 6200 50  0000 C CNN
	1    9200 6200
	-1   0    0    1   
$EndComp
Wire Wire Line
	9200 5600 9200 5500
Wire Wire Line
	9200 5500 8900 5500
Wire Wire Line
	9200 5900 9200 5800
Wire Wire Line
	9200 6100 9200 6200
$Comp
L CONN_01X03 P?
U 1 1 5A25BBB9
P 10600 5100
F 0 "P?" H 10600 5300 50  0000 C CNN
F 1 "CONN_01X03" V 10700 5100 50  0000 C CNN
F 2 "" H 10600 5100 50  0000 C CNN
F 3 "" H 10600 5100 50  0000 C CNN
	1    10600 5100
	1    0    0    -1  
$EndComp
Wire Wire Line
	13300 6100 13300 6200
Connection ~ 13300 6200
Wire Wire Line
	8900 5100 9500 5100
Wire Wire Line
	9500 5000 8900 5000
Wire Wire Line
	9900 5000 10400 5000
Wire Wire Line
	9900 5100 10400 5100
Text Label 9900 5000 0    60   ~ 0
TXD
Text Label 9900 5100 0    60   ~ 0
RXD
Text Label 9500 5100 2    60   ~ 0
TXD
Text Label 9500 5000 2    60   ~ 0
RXD
$Comp
L GND #PWR?
U 1 1 5A48038F
P 10300 5300
F 0 "#PWR?" H 10300 5050 50  0001 C CNN
F 1 "GND" H 10300 5150 50  0000 C CNN
F 2 "" H 10300 5300 50  0000 C CNN
F 3 "" H 10300 5300 50  0000 C CNN
	1    10300 5300
	1    0    0    -1  
$EndComp
Wire Wire Line
	10400 5200 10300 5200
Wire Wire Line
	10300 5200 10300 5300
$EndSCHEMATC
